1	LH-60
2	LH-171
3	LH-183
4	LH-194
5	LH-205
6	LH-216
7	LH-227
8	LH-238
9	LH-249
10	LH-61
11	LH-72
12	LH-83
13	LH-94
14	LH-105
15	LH-116
16	LH-127
17	LH-138
18	LH-149
19	LH-160
20	LH-172
21	LH-174
22	LH-175
23	LH-176
24	LH-177
25	LH-178
26	LH-179
27	LH-180
28	LH-181
29	LH-182
30	LH-184
31	LH-185
32	LH-186
33	LH-187
34	LH-188
35	LH-189
36	LH-190
37	LH-191
38	LH-192
39	LH-193
40	LH-195
41	LH-196
42	LH-197
43	LH-198
44	LH-199
45	LH-200
46	LH-201
47	LH-202
48	LH-203
49	LH-204
50	LH-206
51	LH-207
52	LH-208
53	LH-209
54	LH-210
55	LH-211
56	LH-212
57	LH-213
58	LH-214
59	LH-215
60	LH-217
61	LH-218
62	LH-219
63	LH-220
64	LH-221
65	LH-222
66	LH-223
67	LH-224
68	LH-225
69	LH-226
70	LH-228
71	LH-229
72	LH-230
73	LH-231
74	LH-232
75	LH-233
76	LH-234
77	LH-235
78	LH-236
79	LH-237
80	LH-239
81	LH-240
82	LH-242
83	LH-243
84	LH-244
85	LH-245
86	LH-246
87	LH-110
88	LH-247
89	LH-248
90	LH-250
91	LH-251
92	LH-252
93	LH-253
94	LH-254
95	LH-255
96	LH-256
97	LH-257
98	LH-258
99	LH-259
100	LH-62
101	LH-63
102	LH-64
103	LH-65
104	LH-66
105	LH-67
106	LH-68
107	LH-69
108	LH-70
109	LH-71
110	LH-73
111	LH-74
112	LH-75
113	LH-76
114	LH-77
115	LH-79
116	LH-79
117	LH-80
118	LH-81
119	LH-82
120	LH-84
121	LH-85
122	LH-86
123	LH-87
124	LH-88
125	LH-89
126	LH-90
127	LH-91
128	LH-92
129	LH-93
130	LH-95
131	LH-96
132	LH-97
133	LH-98
134	LH-99
135	LH-100
136	LH-101
137	LH-102
138	LH-103
139	LH-104
140	LH-106
141	LH-107
142	LH-108
143	LH-109
144	LH-110
145	LH-111
146	LH-112
147	LH-113
148	LH-114
149	LH-115
150	LH-117
151	LH-118
152	LH-119
153	LH-120
154	LH-121
155	LH-122
156	LH-123
157	LH-124
158	LH-125
159	LH-126
160	LH-128
161	LH-129
162	LH-130
163	LH-131
164	LH-132
165	LH-133
166	LH-134
167	LH-135
168	LH-136
169	LH-137
170	LH-139
171	LH-140
172	LH-141
173	LH-142
174	LH-143
175	LH-144
176	LH-145
177	LH-146
178	LH-147
179	LH-148
180	LH-150
181	LH-151
182	LH-152
183	LH-153
184	LH-154
185	LH-155
186	LH-156
187	LH-157
188	LH-158
189	LH-159
190	LH-161
191	LH-162
192	LH-163
193	LH-164
194	LH-165
195	LH-166
196	LH-167
197	LH-168
198	LH-169
199	LH-170
200	LH-173
201	LH-260
202	LH-371
203	LH-383
204	LH-394
205	LH-405
206	LH-412
207	LH-422
208	LH-433
209	LH-444
210	LH-261
211	LH-272
212	LH-283
213	LH-294
214	LH-305
215	LH-316
216	LH-327
217	LH-338
218	LH-349
219	LH-360
220	LH-372
221	LH-374
222	LH-375
223	LH-376
224	LH-377
225	LH-378
226	LH-379
227	LH-380
228	LH-381
229	LH-382
230	LH-384
231	LH-385
232	LH-386
233	LH-387
234	LH-388
235	LH-389
236	LH-390
237	LH-391
238	LH-392
239	LH-393
240	LH-395
241	LH-396
242	LH-397
243	LH-398
244	LH-399
245	LH-400
246	LH-401
247	LH-402
248	LH-403
249	LH-404
250	LH-406
251	LH-1063
252	LH-1074
253	LH-1085
254	LH-407
255	LH-408
256	LH-409
257	LH-410
258	LH-411
259	LH-1093
260	LH-413
261	LH-414
262	LH-415
263	LH-416
264	LH-417
265	LH-1099
266	LH-418
267	LH-419
268	LH-420
269	LH-421
270	LH-423
271	LH-424
272	LH-425
273	LH-426
274	LH-427
275	LH-428
276	LH-429
277	LH-430
278	LH-431
279	LH-432
280	LH-434
281	LH-435
282	LH-436
283	LH-437
284	LH-438
285	LH-439
286	LH-440
287	LH-441
288	LH-442
289	LH-443
290	LH-445
291	LH-446
292	LH-447
293	LH-448
294	LH-449
295	LH-450
296	LH-451
297	LH-1094
298	LH-452
299	LH-453
300	LH-262
301	LH-263
302	LH-264
303	LH-265
304	LH-266
305	LH-267
306	LH-268
307	LH-269
308	LH-270
309	LH-271
310	LH-273
311	LH-274
312	LH-275
313	LH-276
314	LH-277
315	LH-278
316	LH-279
317	LH-280
318	LH-281
319	LH-282
320	LH-284
321	LH-285
322	LH-286
323	LH-287
324	LH-288
325	LH-289
326	LH-290
327	LH-291
328	LH-292
329	LH-293
330	LH-295
331	LH-296
332	LH-297
333	LH-298
334	LH-299
335	LH-300
336	LH-301
337	LH-302
338	LH-303
339	LH-304
340	LH-306
341	LH-307
342	LH-308
343	LH-309
344	LH-310
345	LH-311
346	LH-312
347	LH-313
348	LH-314
349	LH-315
350	LH-317
351	LH-318
352	LH-319
353	LH-320
354	LH-321
355	LH-323
356	LH-324
357	LH-325
358	LH-326
359	LH-326
360	LH-328
361	LH-329
362	LH-330
363	LH-331
364	LH-332
365	LH-333
366	LH-334
367	LH-335
368	LH-336
369	LH-337
370	LH-339
371	LH-340
372	LH-341
373	LH-342
374	LH-343
375	LH-344
376	LH-345
377	LH-346
378	LH-347
379	LH-348
380	LH-350
381	LH-351
382	LH-352
383	LH-353
384	LH-354
385	LH-355
386	LH-356
387	LH-357
388	LH-358
389	LH-359
390	LH-361
391	LH-362
392	LH-363
393	LH-364
394	LH-365
395	LH-366
396	LH-367
397	LH-368
398	LH-369
399	LH-370
400	LH-373
401	LH-454
402	LH-556
403	LH-568
404	LH-579
405	LH-590
406	LH-601
407	LH-610
408	LH-619
409	LH-630
410	LH-455
411	LH-466
412	LH-473
413	LH-484
414	LH-494
415	LH-505
416	LH-516
417	LH-525
418	LH-535
419	LH-546
420	LH-557
421	LH-559
422	LH-560
423	LH-561
424	LH-562
425	LH-563
426	LH-564
427	LH-565
428	LH-566
429	LH-567
430	LH-569
431	LH-570
432	LH-571
433	LH-572
434	LH-573
435	LH-574
436	LH-575
437	LH-576
438	LH-577
439	LH-578
440	LH-580
441	LH-581
442	LH-582
443	LH-583
444	LH-584
445	LH-585
446	LH-586
447	LH-587
448	LH-588
449	LH-589
450	LH-591
451	LH-592
452	LH-593
453	LH-594
454	LH-595
455	LH-596
456	LH-597
457	LH-598
458	LH-599
459	LH-600
460	LH-602
461	LH-603
462	LH-604
463	LH-605
464	LH-1095
465	LH-606
466	LH-607
467	LH-1096
468	LH-608
469	LH-609
470	LH-611
471	LH-612
472	LH-1097
473	LH-1098
474	LH-613
475	LH-614
476	LH-615
477	LH-616
478	LH-617
479	LH-618
480	LH-620
481	LH-621
482	LH-622
483	LH-623
484	LH-624
485	LH-625
486	LH-626
487	LH-627
488	LH-628
489	LH-629
490	LH-631
491	LH-632
492	LH-633
493	LH-634
494	LH-635
495	LH-636
496	LH-637
497	LH-638
498	LH-639
499	LH-640
500	LH-456
501	LH-457
502	LH-458
503	LH-459
504	LH-460
505	LH-461
506	LH-462
507	LH-463
508	LH-464
509	LH-465
510	LH-467
511	LH-468
512	LH-469
513	LH-1064
514	LH-470
515	LH-471
516	LH-1065
517	LH-1066
518	LH-1067
519	LH-472
520	LH-474
521	LH-475
522	LH-476
523	LH-477
524	LH-478
525	LH-479
526	LH-480
527	LH-481
528	LH-482
529	LH-483
530	LH-485
531	LH-486
532	LH-487
533	LH-488
534	LH-489
535	LH-490
536	LH-491
537	LH-492
538	LH-1100
539	LH-493
540	LH-495
541	LH-496
542	LH-497
543	LH-498
544	LH-499
545	LH-500
546	LH-501
547	LH-502
548	LH-503
549	LH-504
550	LH-506
551	LH-507
552	LH-508
553	LH-509
554	LH-510
555	LH-511
556	LH-512
557	LH-513
558	LH-514
559	LH-515
560	LH-517
561	LH-518
562	LH-519
563	LH-520
564	LH-1068
565	LH-1069
566	LH-521
567	LH-522
568	LH-523
569	LH-524
570	LH-526
571	LH-527
572	LH-528
573	LH-529
574	LH-530
575	LH-531
576	LH-532
577	LH-533
578	LH-1070
579	LH-534
580	LH-536
581	LH-537
582	LH-538
583	LH-539
584	LH-540
585	LH-541
586	LH-542
587	LH-543
588	LH-544
589	LH-545
590	LH-547
591	LH-548
592	LH-549
593	LH-550
594	LH-551
595	LH-1071
596	LH-552
597	LH-553
598	LH-554
599	LH-555
600	LH-558
601	LH-641
602	LH-750
603	LH-761
604	LH-772
605	LH-783
606	LH-793
607	LH-804
608	LH-815
609	LH-826
610	LH-642
611	LH-653
612	LH-664
613	LH-674
614	LH-685
615	LH-696
616	LH-707
617	LH-718
618	LH-729
619	LH-739
620	LH-751
621	LH-753
622	LH-754
623	LH-755
624	LH-1072
625	LH-756
626	LH-757
627	LH-758
628	LH-759
629	LH-760
630	LH-762
631	LH-763
632	LH-764
633	LH-765
634	LH-766
635	LH-767
636	LH-768
637	LH-769
638	LH-770
639	LH-771
640	LH-773
641	LH-774
642	LH-775
643	LH-776
644	LH-777
645	LH-778
646	LH-779
647	LH-780
648	LH-781
649	LH-782
650	LH-1075
651	LH-784
652	LH-785
653	LH-786
654	LH-787
655	LH-788
656	LH-789
657	LH-790
658	LH-791
659	LH-792
660	LH-794
661	LH-795
662	LH-796
663	LH-797
664	LH-798
665	LH-799
666	LH-800
667	LH-801
668	LH-802
669	LH-803
670	LH-805
671	LH-806
672	LH-807
673	LH-808
674	LH-809
675	LH-810
676	LH-811
677	LH-812
678	LH-813
679	LH-814
680	LH-816
681	LH-817
682	LH-818
683	LH-819
684	LH-820
685	LH-821
686	LH-822
687	LH-823
688	LH-824
689	LH-825
690	LH-827
691	LH-1075
692	LH-828
693	LH-829
694	LH-830
695	LH-831
696	LH-832
697	LH-833
698	LH-834
699	LH-835
700	LH-643
701	LH-644
702	LH-645
703	LH-646
704	LH-647
705	LH-648
706	LH-649
707	LH-650
708	LH-651
709	LH-652
710	LH-654
711	LH-655
712	LH-656
713	LH-657
714	LH-658
715	LH-659
716	LH-660
717	LH-661
718	LH-662
719	LH-663
720	LH-665
721	LH-666
722	LH-667
723	LH-668
724	LH-669
725	LH-670
726	LH-671
727	LH-672
728	LH-1076
729	LH-673
730	LH-675
731	LH-676
732	LH-677
733	LH-678
734	LH-679
735	LH-680
736	LH-681
737	LH-682
738	LH-683
739	LH-684
740	LH-686
741	LH-687
742	LH-688
743	LH-689
744	LH-690
745	LH-691
746	LH-692
747	LH-693
748	LH-694
749	LH-695
750	LH-697
751	LH-698
752	LH-699
753	LH-700
754	LH-701
755	LH-702
756	LH-703
757	LH-704
758	LH-705
759	LH-706
760	LH-708
761	LH-709
762	LH-710
763	LH-711
764	LH-712
765	LH-713
766	LH-715
767	LH-715
768	LH-716
769	LH-717
770	LH-719
771	LH-720
772	LH-721
773	LH-722
774	LH-723
775	LH-724
776	LH-725
777	LH-726
778	LH-727
779	LH-728
780	LH-730
781	LH-731
782	LH-732
783	LH-733
784	LH-734
785	LH-1077
786	LH-735
787	LH-736
788	LH-737
789	LH-738
790	LH-740
791	LH-741
792	LH-742
793	LH-743
794	LH-744
795	LH-745
796	LH-746
797	LH-747
798	LH-748
799	LH-749
800	LH-752
801	LH-836
802	LH-938
803	LH-990
804	LH-1078
805	LH-1011
806	LH-1079
807	LH-1031
808	LH-1042
809	LH-1052
810	LH-837
811	LH-847
812	LH-1080
813	LH-867
814	LH-1081
815	LH-887
816	LH-897
817	LH-907
818	LH-917
819	LH-928
820	LH-939
821	LH-950
822	LH-960
823	LH-970
824	LH-979
825	LH-985
826	LH-986
827	LH-987
828	LH-988
829	LH-989
830	LH-991
831	LH-992
832	LH-993
833	LH-994
834	LH-995
835	LH-996
836	LH-997
837	LH-998
838	LH-999
839	LH-1000
840	LH-1001
841	LH-1002
842	LH-1003
843	LH-1004
844	LH-1005
845	LH-1006
846	LH-1007
847	LH-1008
848	LH-1009
849	LH-1010
850	LH-1012
851	LH-1013
852	LH-1014
853	LH-1015
854	LH-1016
855	LH-1017
856	LH-1018
857	LH-1019
858	LH-1020
859	LH-1021
860	LH-1101
861	LH-1022
862	LH-1023
863	LH-1024
864	LH-1025
865	LH-1026
866	LH-1027
867	LH-1028
868	LH-1029
869	LH-1030
870	LH-1032
871	LH-1033
872	LH-1034
873	LH-1035
874	LH-1036
875	LH-1037
876	LH-1038
877	LH-1039
878	LH-1040
879	LH-1041
880	LH-1043
881	LH-1044
882	LH-1045
883	LH-1046
884	LH-1047
885	LH-1048
886	LH-1049
887	LH-1050
888	LH-1082
889	LH-1051
890	LH-1053
891	LH-1054
892	LH-1055
893	LH-1056
894	LH-1057
895	LH-1058
896	LH-1059
897	LH-1060
898	LH-1061
899	LH-1062
900	LH-1102
901	LH-838
902	LH-839
903	LH-840
904	LH-841
905	LH-842
906	LH-843
907	LH-844
908	LH-845
909	LH-846
910	LH-848
911	LH-849
912	LH-850
913	LH-851
914	LH-852
915	LH-853
916	LH-854
917	LH-855
918	LH-856
919	LH-1083
920	LH-857
921	LH-858
922	LH-859
923	LH-860
924	LH-861
925	LH-862
926	LH-863
927	LH-864
928	LH-865
929	LH-866
930	LH-868
931	LH-869
932	LH-870
933	LH-871
934	LH-872
935	LH-873
936	LH-874
937	LH-875
938	LH-876
939	LH-877
940	LH-878
941	LH-879
942	LH-880
943	LH-881
944	LH-882
945	LH-883
946	LH-883
947	LH-884
948	LH-885
949	LH-886
950	LH-888
951	LH-1103
952	LH-889
953	LH-890
954	LH-891
955	LH-892
956	LH-893
957	LH-894
958	LH-895
959	LH-896
960	LH-898
961	LH-899
962	LH-900
963	LH-901
964	LH-902
965	LH-903
966	LH-904
967	LH-905
968	LH-906
969	LH-1084
970	LH-908
971	LH-909
972	LH-910
973	LH-911
974	LH-912
975	LH-913
976	LH-914
977	LH-915
978	LH-1104
979	LH-916
980	LH-918
981	LH-919
982	LH-920
983	LH-921
984	LH-922
985	LH-923
986	LH-924
987	LH-925
988	LH-926
989	LH-927
990	LH-929
991	LH-1086
992	LH-930
993	LH-931
994	LH-932
995	LH-933
996	LH-934
997	LH-935
998	LH-936
999	LH-937
1000	LH-940
1001	LH-941
1002	LH-942
1003	LH-943
1004	LH-944
1005	LH-945
1006	LH-946
1007	LH-947
1008	LH-948
1009	LH-949
1010	LH-951
1011	LH-952
1012	LH-953
1013	LH-1087
1014	LH-954
1015	LH-955
1016	LH-956
1017	LH-957
1018	LH-958
1019	LH-959
1020	LH-961
1021	LH-962
1022	LH-963
1023	LH-964
1024	LH-965
1025	LH-966
1026	LH-967
1027	LH-968
1028	LH-1088
1029	LH-969
1030	LH-971
1031	LH-972
1032	LH-973
1033	LH-1089
1034	LH-974
1035	LH-1090
1036	LH-975
1037	LH-976
1038	LH-977
1039	LH-978
1040	LH-980
1041	LH-981
1042	LH-982
1043	LH-983
1044	LH-1091
1045	LH-984
1046	LH-1092
